Statistics with R - session 2
…
more complicated if we want other type of correlation than Pearson

Simple linear regression

Nouragues tree data

We will work on a modified version of Nouragues tree data from the package BIOMASS (available here) These data have been modified to exclude the non fully determined trees, and add the family.

Heights and diameters of trees in two 1-ha plots from the Nouragues forest (French Guiana)

load("data/data_statistics_2.RData")
dt_nou

# A tibble: 454 × 8
   plotId genus      species         D     H   lat  long family          
   <chr>  <chr>      <chr>       <dbl> <dbl> <dbl> <dbl> <chr>           
 1 Plot1  Qualea     rosea        11.6    16  4.07 -52.7 Vochysiaceae    
 2 Plot1  Dicorynia  guianensis   83.9    40  4.07 -52.7 Fabaceae        
 3 Plot1  Ocotea     guianensis   36.8    27  4.07 -52.7 Lauraceae       
 4 Plot1  Cordia     sagotii      13.5    20  4.07 -52.7 Boraginaceae    
 5 Plot1  Cecropia   obtusa       17.8    24  4.07 -52.7 Urticaceae      
 6 Plot1  Licania    membranacea  17.8    21  4.07 -52.7 Chrysobalanaceae
 7 Plot1  Ocotea     guianensis   15.9    22  4.07 -52.7 Lauraceae       
 8 Plot1  Qualea     rosea        17.8    24  4.07 -52.7 Vochysiaceae    
 9 Plot1  Oenocarpus bataua       20.5    23  4.07 -52.7 Arecaceae       
10 Plot1  Licania    latistipula  11.1    15  4.07 -52.7 Chrysobalanaceae
# ℹ 444 more rows
…
