Introduction to the tidyverse
…
[1] "spec_tbl_df" "tbl_df"      "tbl"         "data.frame" 

it is faster

tbl_df a subclass of data.frame to distinguish its behaviour from these of other tibble (explain that some functions performs different things depending of the class of the object)

spec_tbl_df store the columns specification (as seen here)

Functional trait data of trees

Let’s look at the functional trait data:

traits

# A tibble: 45 × 13
   genus    species s_LMA s_Nmass s_Pmass s_wsg s_dbhmax s_hmax  s_ah s_seedmass
   <chr>    <chr>   <dbl>   <dbl>   <dbl> <dbl>    <dbl>  <dbl> <dbl>      <dbl>
 1 Abarema  jupunba 110.   0.0232 5.7 e-4 0.576     0.66   50.9 0.308          1
 2 Bocoa    prouac…  95.6  0.0255 5.05e-4 0.798     0.4    47.9 0.251          1
 3 Brosimum rubesc…  85.8  0.0188 6.88e-4 0.619     0.52   50.9 0.308          1
 4 Carapa   procera 130.   0.0177 6.36e-4 0.55      0.49   41.4 0.187          1
 5 Caryocar glabrum  84.2  0.0217 8.13e-4 0.612     1.15   48.6 0.275          1
 6 Cecropia obtusa   69.5  0.0276 1.38e-3 0.388     0.35   50.9 0.308          1
 7 Chrysop… sangui… 151.   0.0154 4.69e-4 0.566     0.67   50.9 0.308          1
 8 Conceve… guiane…  86.7  0.0235 7.29e-4 0.537     0.23   33.3 0.16           1
 9 Cordia   sagotii 134.   0.0253 5.92e-4 0.443     0.47   36.4 0.139          1
10 Couepia  bracte… 123.   0.015  4.82e-4 0.784     0.45   50.9 0.308          1
# ℹ 35 more rows
# ℹ 3 more variables: s_regionalfreq <dbl>, s_tlp <dbl>, s_drymass <dbl>
…
[1] "tbl_df"     "tbl"        "data.frame"

Transform data frame into tibble

⚠️ Remember that tibbles don’t have row names.

So if there was row names that we wanted to keep in our data frame, we should use the function rownames_to_column to put them in a column (but let’s not store it here).

as.tibble(rownames_to_column(sp_com))

Warning: `as.tibble()` was deprecated in tibble 2.0.0.
ℹ Please use `as_tibble()` instead.
ℹ The signature and semantics have changed, see `?as_tibble`.

# A tibble: 96 × 9
   rowname CommercialName  Genus     Species CommercialLevel MinFD UpMinFD MaxFD
   <chr>   <chr>           <chr>     <chr>             <int> <int>   <int> <int>
 1 1       st martin rouge Andira    spp                   2    55      60   120
 2 2       bamba apici     Aniba     spp                   2    55      60   120
 3 3       bagasse         Bagassa   guiane…               2    55      60   120
 4 4       assao           Balizia   pedice…               2    55      60   120
 5 5       dokali          Brosimum  parina…               2    55      60   120
 6 6       satiné rubané   Brosimum  rubesc…               2    55      60   120
 7 7       dokali mapa     Brosimum  utile                 2    55      60   120
 8 8       bushi amanda    Buchenav… spp                   2    55      60   120
 9 9       carapa          Carapa    guians…               2    55      60   120
10 10      carapa          Carapa    surina…               2    55      60   120
# ℹ 86 more rows
# ℹ 1 more variable: Aggregative <lgl>

here we just look at the results but don’t store them

Commercial tree species

Let’s look at the sp_com data :

sp_com

# A tibble: 96 × 8
   CommercialName  Genus Species CommercialLevel MinFD UpMinFD MaxFD Aggregative
   <chr>           <chr> <chr>             <int> <int>   <int> <int> <lgl>      
 1 st martin rouge Andi… spp                   2    55      60   120 FALSE      
 2 bamba apici     Aniba spp                   2    55      60   120 FALSE      
 3 bagasse         Baga… guiane…               2    55      60   120 FALSE      
 4 assao           Bali… pedice…               2    55      60   120 FALSE      
 5 dokali          Bros… parina…               2    55      60   120 FALSE      
 6 satiné rubané   Bros… rubesc…               2    55      60   120 FALSE      
 7 dokali mapa     Bros… utile                 2    55      60   120 FALSE      
 8 bushi amanda    Buch… spp                   2    55      60   120 FALSE      
 9 carapa          Cara… guians…               2    55      60   120 FALSE      
10 carapa          Cara… surina…               2    55      60   120 FALSE      
# ℹ 86 more rows
…
There are no species satisfying these two conditions in our dataset.

we could write it only on one line, it’s just for readability

filter

We can also use a function to specify the condition.

Let’s select trees with maximum DBH higher than the median:

filter(traits, s_dbhmax > median(s_dbhmax))

# A tibble: 22 × 13
   genus    species s_LMA s_Nmass s_Pmass s_wsg s_dbhmax s_hmax  s_ah s_seedmass
   <chr>    <chr>   <dbl>   <dbl>   <dbl> <dbl>    <dbl>  <dbl> <dbl>      <dbl>
 1 Abarema  jupunba 110.   0.0232 5.7 e-4 0.576     0.66   50.9 0.308          1
 2 Brosimum rubesc…  85.8  0.0188 6.88e-4 0.619     0.52   50.9 0.308          1
 3 Carapa   procera 130.   0.0177 6.36e-4 0.55      0.49   41.4 0.187          1
 4 Caryocar glabrum  84.2  0.0217 8.13e-4 0.612     1.15   48.6 0.275          1
 5 Chrysop… sangui… 151.   0.0154 4.69e-4 0.566     0.67   50.9 0.308          1
 6 Cordia   sagotii 134.   0.0253 5.92e-4 0.443     0.47   36.4 0.139          1
 7 Couepia  bracte… 123.   0.015  4.82e-4 0.784     0.45   50.9 0.308          1
 8 Cyrillo… paraen…  53.0  0.0289 5.72e-4 0.757     0.55   50.9 0.308          1
 9 Dicoryn… guiane…  91.3  0.0243 6.9 e-4 0.61      1.02   57.9 0.362          1
10 Drypetes variab… 113.   0.0204 7.76e-4 0.699     0.5    50.9 0.308          1
# ℹ 12 more rows
# ℹ 3 more variables: s_regionalfreq <dbl>, s_tlp <dbl>, s_drymass <dbl>

arrange

The function arrange reorders the row according to one or several columns:

Let’s sort the species by increasing order of WSG, and then by decreasing order of hmax:

arrange(traits, 
        s_wsg, # increasing
        desc(s_hmax)) # decreasing

# A tibble: 45 × 13
   genus    species s_LMA s_Nmass s_Pmass s_wsg s_dbhmax s_hmax  s_ah s_seedmass
   <chr>    <chr>   <dbl>   <dbl>   <dbl> <dbl>    <dbl>  <dbl> <dbl>      <dbl>
 1 Cecropia obtusa   69.5  0.0276 1.38e-3 0.388     0.35   50.9 0.308          1
 2 Cordia   sagotii 134.   0.0253 5.92e-4 0.443     0.47   36.4 0.139          1
 3 Neea     florib…  74.3  0.036  7.65e-4 0.451     0.28   50.9 0.308          1
 4 Virola   michel…  95.2  0.024  6.31e-4 0.476     0.62   46.2 0.229          1
 5 Iryanth… sagoti…  91.0  0.0193 5.29e-4 0.522     0.37   44.3 0.264          1
 6 Quarari… duckei   50.8  0.0328 1.03e-3 0.527     0.14   19.4 0.07           1
 7 Conceve… guiane…  86.7  0.0235 7.29e-4 0.537     0.23   33.3 0.16           1
 8 Qualea   rosea   106.   0.0184 5.3 e-4 0.548     0.5    58.1 0.299          1
 9 Carapa   procera 130.   0.0177 6.36e-4 0.55      0.49   41.4 0.187          1
10 Theobro… subinc…  84.3  0.0188 5.89e-4 0.553     0.28   41.4 0.211          1
# ℹ 35 more rows
# ℹ 3 more variables: s_regionalfreq <dbl>, s_tlp <dbl>, s_drymass <dbl>
…
rename

mutate

relocate

select

The function select selects columns:

Let’s select the Commercial names, Genus and Species from sp_com:

select(sp_com, CommercialName, Genus, Species)

# A tibble: 96 × 3
   CommercialName  Genus      Species      
   <chr>           <chr>      <chr>        
 1 st martin rouge Andira     spp          
 2 bamba apici     Aniba      spp          
 3 bagasse         Bagassa    guianensis   
 4 assao           Balizia    pedicellaris 
 5 dokali          Brosimum   parinarioides
 6 satiné rubané   Brosimum   rubescens    
 7 dokali mapa     Brosimum   utile        
 8 bushi amanda    Buchenavia spp          
 9 carapa          Carapa     guiansensis  
10 carapa          Carapa     surinamensis 
# ℹ 86 more rows

select

We can also say the columns we don’t want to select using select.

Let’s select all the columns but the commercial name, using - before the name of the column to exclude:

select(sp_com, - CommercialName)

# A tibble: 96 × 7
   Genus      Species       CommercialLevel MinFD UpMinFD MaxFD Aggregative
   <chr>      <chr>                   <int> <int>   <int> <int> <lgl>      
 1 Andira     spp                         2    55      60   120 FALSE      
 2 Aniba      spp                         2    55      60   120 FALSE      
 3 Bagassa    guianensis                  2    55      60   120 FALSE      
 4 Balizia    pedicellaris                2    55      60   120 FALSE      
 5 Brosimum   parinarioides               2    55      60   120 FALSE      
 6 Brosimum   rubescens                   2    55      60   120 FALSE      
 7 Brosimum   utile                       2    55      60   120 FALSE      
 8 Buchenavia spp                         2    55      60   120 FALSE      
 9 Carapa     guiansensis                 2    55      60   120 FALSE      
10 Carapa     surinamensis                2    55      60   120 FALSE      
# ℹ 86 more rows

select

We can use functions to express a conditions on the column names: starts_with, ends_with, contains…

# columns starting with "com"
select(sp_com, starts_with("Com")) 

# A tibble: 96 × 2
   CommercialName  CommercialLevel
   <chr>                     <int>
 1 st martin rouge               2
 2 bamba apici                   2
 3 bagasse                       2
 4 assao                         2
 5 dokali                        2
 6 satiné rubané                 2
 7 dokali mapa                   2
 8 bushi amanda                  2
 9 carapa                        2
10 carapa                        2
# ℹ 86 more rows

# columns containing "FD"
select(sp_com, contains("FD")) 

# A tibble: 96 × 3
   MinFD UpMinFD MaxFD
   <int>   <int> <int>
 1    55      60   120
 2    55      60   120
 3    55      60   120
 4    55      60   120
 5    55      60   120
 6    55      60   120
 7    55      60   120
 8    55      60   120
 9    55      60   120
10    55      60   120
# ℹ 86 more rows

See the package tidyselect for more…

rename

We can rename columns with the function rename:

rename(traits, 
       LMA = s_LMA) # start with the new name

# A tibble: 45 × 13
   genus    species   LMA s_Nmass s_Pmass s_wsg s_dbhmax s_hmax  s_ah s_seedmass
   <chr>    <chr>   <dbl>   <dbl>   <dbl> <dbl>    <dbl>  <dbl> <dbl>      <dbl>
 1 Abarema  jupunba 110.   0.0232 5.7 e-4 0.576     0.66   50.9 0.308          1
 2 Bocoa    prouac…  95.6  0.0255 5.05e-4 0.798     0.4    47.9 0.251          1
 3 Brosimum rubesc…  85.8  0.0188 6.88e-4 0.619     0.52   50.9 0.308          1
 4 Carapa   procera 130.   0.0177 6.36e-4 0.55      0.49   41.4 0.187          1
 5 Caryocar glabrum  84.2  0.0217 8.13e-4 0.612     1.15   48.6 0.275          1
 6 Cecropia obtusa   69.5  0.0276 1.38e-3 0.388     0.35   50.9 0.308          1
 7 Chrysop… sangui… 151.   0.0154 4.69e-4 0.566     0.67   50.9 0.308          1
 8 Conceve… guiane…  86.7  0.0235 7.29e-4 0.537     0.23   33.3 0.16           1
 9 Cordia   sagotii 134.   0.0253 5.92e-4 0.443     0.47   36.4 0.139          1
10 Couepia  bracte… 123.   0.015  4.82e-4 0.784     0.45   50.9 0.308          1
# ℹ 35 more rows
# ℹ 3 more variables: s_regionalfreq <dbl>, s_tlp <dbl>, s_drymass <dbl>
…
group_by

summarise

count

group_by

The function group_by allow grouping rows according to the values of a column.

Let’s group the table of traits by genus

traits %>% group_by(genus)

# A tibble: 45 × 13
# Groups:   genus [35]
   genus    species s_LMA s_Nmass s_Pmass s_wsg s_dbhmax s_hmax  s_ah s_seedmass
   <chr>    <chr>   <dbl>   <dbl>   <dbl> <dbl>    <dbl>  <dbl> <dbl>      <dbl>
 1 Abarema  jupunba 110.   0.0232 5.7 e-4 0.576     0.66   50.9 0.308          1
 2 Bocoa    prouac…  95.6  0.0255 5.05e-4 0.798     0.4    47.9 0.251          1
 3 Brosimum rubesc…  85.8  0.0188 6.88e-4 0.619     0.52   50.9 0.308          1
 4 Carapa   procera 130.   0.0177 6.36e-4 0.55      0.49   41.4 0.187          1
 5 Caryocar glabrum  84.2  0.0217 8.13e-4 0.612     1.15   48.6 0.275          1
 6 Cecropia obtusa   69.5  0.0276 1.38e-3 0.388     0.35   50.9 0.308          1
 7 Chrysop… sangui… 151.   0.0154 4.69e-4 0.566     0.67   50.9 0.308          1
 8 Conceve… guiane…  86.7  0.0235 7.29e-4 0.537     0.23   33.3 0.16           1
 9 Cordia   sagotii 134.   0.0253 5.92e-4 0.443     0.47   36.4 0.139          1
10 Couepia  bracte… 123.   0.015  4.82e-4 0.784     0.45   50.9 0.308          1
# ℹ 35 more rows
# ℹ 3 more variables: s_regionalfreq <dbl>, s_tlp <dbl>, s_drymass <dbl>
There is no apparent change in the tibble, except the mention of the grouping.

show that the tibble has still the same dimensions

group_by with slice

When groups have been defined, we can apply further operations on these groups by using other functions.

Let’s select the species with the maximum wsg for each genus, using slice_max:

traits %>% 
  group_by(genus) %>% 
  slice_max(s_wsg) 

# A tibble: 35 × 13
# Groups:   genus [35]
   genus    species s_LMA s_Nmass s_Pmass s_wsg s_dbhmax s_hmax  s_ah s_seedmass
   <chr>    <chr>   <dbl>   <dbl>   <dbl> <dbl>    <dbl>  <dbl> <dbl>      <dbl>
 1 Abarema  jupunba 110.   0.0232 5.7 e-4 0.576     0.66   50.9 0.308          1
 2 Bocoa    prouac…  95.6  0.0255 5.05e-4 0.798     0.4    47.9 0.251          1
 3 Brosimum rubesc…  85.8  0.0188 6.88e-4 0.619     0.52   50.9 0.308          1
 4 Carapa   procera 130.   0.0177 6.36e-4 0.55      0.49   41.4 0.187          1
 5 Caryocar glabrum  84.2  0.0217 8.13e-4 0.612     1.15   48.6 0.275          1
 6 Cecropia obtusa   69.5  0.0276 1.38e-3 0.388     0.35   50.9 0.308          1
 7 Chrysop… sangui… 151.   0.0154 4.69e-4 0.566     0.67   50.9 0.308          1
 8 Conceve… guiane…  86.7  0.0235 7.29e-4 0.537     0.23   33.3 0.16           1
 9 Cordia   sagotii 134.   0.0253 5.92e-4 0.443     0.47   36.4 0.139          1
10 Couepia  bracte… 123.   0.015  4.82e-4 0.784     0.45   50.9 0.308          1
# ℹ 25 more rows
# ℹ 3 more variables: s_regionalfreq <dbl>, s_tlp <dbl>, s_drymass <dbl>
…
show them the number of rows and the number of genus

group_by with mutate

We can also use v with mutate to do an operation by group.

Let’s calculate the mean wsg of each genus:

traits %>% 
  group_by(genus) %>%
  mutate(mean_wsg = mean(s_wsg)) %>% 
  select(genus, species, s_wsg, mean_wsg) # select only the columns of interest

# A tibble: 45 × 4
# Groups:   genus [35]
   genus         species        s_wsg mean_wsg
   <chr>         <chr>          <dbl>    <dbl>
 1 Abarema       jupunba        0.576    0.576
 2 Bocoa         prouacensis    0.798    0.798
 3 Brosimum      rubescens      0.619    0.619
 4 Carapa        procera        0.55     0.55 
 5 Caryocar      glabrum        0.612    0.612
 6 Cecropia      obtusa         0.388    0.388
 7 Chrysophyllum sanguinolentum 0.566    0.566
 8 Conceveiba    guianensis     0.537    0.537
 9 Cordia        sagotii        0.443    0.443
10 Couepia       bracteosa      0.784    0.768
# ℹ 35 more rows
…
Note that here only the summary columns are kept.

summarise

The function summarise can be used together with group_by to summarise by group.

Let’s look at the min, max and mean values of wsg by genus:

traits %>% 
  group_by(genus) %>% 
  summarise(min_wsg = min(s_wsg),
            max_wsg = max(s_wsg),
            mean_wsg = mean(s_wsg))

# A tibble: 35 × 4
   genus         min_wsg max_wsg mean_wsg
   <chr>           <dbl>   <dbl>    <dbl>
 1 Abarema         0.576   0.576    0.576
 2 Bocoa           0.798   0.798    0.798
 3 Brosimum        0.619   0.619    0.619
 4 Carapa          0.55    0.55     0.55 
 5 Caryocar        0.612   0.612    0.612
 6 Cecropia        0.388   0.388    0.388
 7 Chrysophyllum   0.566   0.566    0.566
 8 Conceveiba      0.537   0.537    0.537
 9 Cordia          0.443   0.443    0.443
10 Couepia         0.752   0.784    0.768
# ℹ 25 more rows

Here there are as many row than there are groups.

count

The function count counts the number of rows per group.

Let’s count the number of species per genus:

traits %>% 
  count(genus)

# A tibble: 35 × 2
   genus             n
   <chr>         <int>
 1 Abarema           1
 2 Bocoa             1
 3 Brosimum          1
 4 Carapa            1
 5 Caryocar          1
 6 Cecropia          1
 7 Chrysophyllum     1
 8 Conceveiba        1
 9 Cordia            1
10 Couepia           2
# ℹ 25 more rows

We see that the genus Couepia has two species.

Grouping according to several columns

The functions group_by and count can be used to group on several columns.

Let’s go back to the dataset on commercial species and count the number of Species per Genus and per commercial name:

sp_com %>% 
  count(Genus, CommercialName)

# A tibble: 66 × 3
   Genus      CommercialName      n
   <chr>      <chr>           <int>
 1 Andira     st martin rouge     1
 2 Aniba      bamba apici         1
 3 Bagassa    bagasse             1
 4 Balizia    assao               1
 5 Brosimum   dokali              1
 6 Brosimum   dokali mapa         1
 7 Brosimum   satiné rubané       1
 8 Buchenavia bushi amanda        1
 9 Carapa     carapa              2
10 Caryocar   chawari             2
# ℹ 56 more rows
…
gen_dim_max <- traits %>% 
  select(genus, species, s_hmax, s_dbhmax) %>% 
  rename(Hmax = s_hmax,
         DBHmax = s_dbhmax) %>% 
  mutate(BAmax = (DBHmax/2)^2 * pi) %>% 
  group_by(genus) %>% 
  summarise(Hmax_mean = mean(Hmax),
            DBHmax_mean = mean(DBHmax),
            BAmax_mean = mean(BAmax)) %>% 
  arrange(desc(BAmax_mean))

gen_dim_max 

# A tibble: 35 × 4
   genus         Hmax_mean DBHmax_mean BAmax_mean
   <chr>             <dbl>       <dbl>      <dbl>
 1 Caryocar           48.6       1.15       1.04 
 2 Dicorynia          57.9       1.02       0.817
 3 Manilkara          50.9       0.88       0.608
 4 Minquartia         50.9       0.87       0.594
 5 Vouacapoua         54.5       0.81       0.515
 6 Eschweilera        48.0       0.675      0.372
 7 Chrysophyllum      50.9       0.67       0.353
 8 Eperua             44.8       0.67       0.353
 9 Micropholis        50.9       0.67       0.353
10 Abarema            50.9       0.66       0.342
# ℹ 25 more rows
…
Both datasets have a column for the genus and a column for the species, which we can use as keys. But the columns names are not exactly written in the same way.

left_join

We can join traits_sub with sp_com_sub using a left_join.

We need to specify which column matches which (as they are no columns with the exact same names in both datasets).

j1 <- traits_sub %>% 
  left_join(sp_com_sub,
            by = c("genus" = "Genus",
                   "species" = "Species"))
j1

# A tibble: 45 × 5
   genus         species        s_LMA s_wsg CommercialName
   <chr>         <chr>          <dbl> <dbl> <chr>         
 1 Abarema       jupunba        110.  0.576 <NA>          
 2 Bocoa         prouacensis     95.6 0.798 <NA>          
 3 Brosimum      rubescens       85.8 0.619 satiné rubané 
 4 Carapa        procera        130.  0.55  <NA>          
 5 Caryocar      glabrum         84.2 0.612 chawari       
 6 Cecropia      obtusa          69.5 0.388 <NA>          
 7 Chrysophyllum sanguinolentum 151.  0.566 balata pomme  
 8 Conceveiba    guianensis      86.7 0.537 <NA>          
 9 Cordia        sagotii        134.  0.443 <NA>          
10 Couepia       bracteosa      123.  0.784 <NA>          
# ℹ 35 more rows
…
