Introduction to the tidyverse
…
[1] "tbl_df"     "tbl"        "data.frame"

Let’s see another way of getting a tibble

! note read.csv and read_csv

Transform data frame into tibble

⚠️ Remember that tibbles don’t have row names.

So if there was row names that we wanted to keep in our data frame, we should use the function rownames_to_column to put them in a column (but let’s not store it here).

as_tibble(rownames_to_column(sp_com))

# A tibble: 95 × 9
   rowname CommercialName  Genus     Species CommercialLevel MinFD UpMinFD MaxFD
   <chr>   <chr>           <chr>     <chr>             <int> <int>   <int> <int>
 1 1       st martin rouge Andira    spp                   2    55      60   120
 2 2       bamba apici     Aniba     spp                   2    55      60   120
 3 3       bagasse         Bagassa   guiane…               2    55      60   120
 4 4       assao           Balizia   pedice…               2    55      60   120
 5 5       dokali          Brosimum  parina…               2    55      60   120
 6 6       satiné rubané   Brosimum  rubesc…               2    55      60   120
 7 7       dokali mapa     Brosimum  utile                 2    55      60   120
 8 8       bushi amanda    Buchenav… spp                   2    55      60   120
 9 9       carapa          Carapa    guians…               2    55      60   120
10 10      carapa          Carapa    surina…               2    55      60   120
# ℹ 85 more rows
# ℹ 1 more variable: Aggregative <lgl>

here we just look at the results but don’t store them

Commercial tree species

Let’s look at the sp_com data :

sp_com

# A tibble: 95 × 8
   CommercialName  Genus Species CommercialLevel MinFD UpMinFD MaxFD Aggregative
   <chr>           <chr> <chr>             <int> <int>   <int> <int> <lgl>      
 1 st martin rouge Andi… spp                   2    55      60   120 FALSE      
 2 bamba apici     Aniba spp                   2    55      60   120 FALSE      
 3 bagasse         Baga… guiane…               2    55      60   120 FALSE      
 4 assao           Bali… pedice…               2    55      60   120 FALSE      
 5 dokali          Bros… parina…               2    55      60   120 FALSE      
 6 satiné rubané   Bros… rubesc…               2    55      60   120 FALSE      
 7 dokali mapa     Bros… utile                 2    55      60   120 FALSE      
 8 bushi amanda    Buch… spp                   2    55      60   120 FALSE      
 9 carapa          Cara… guians…               2    55      60   120 FALSE      
10 carapa          Cara… surina…               2    55      60   120 FALSE      
# ℹ 85 more rows
…
mutate

relocate

select

The function select selects columns:

Let’s select the Commercial names, Genus and Species from sp_com:

sp_com %>% 
  select(CommercialName, Genus, Species)

# A tibble: 95 × 3
   CommercialName  Genus      Species      
   <chr>           <chr>      <chr>        
 1 st martin rouge Andira     spp          
 2 bamba apici     Aniba      spp          
 3 bagasse         Bagassa    guianensis   
 4 assao           Balizia    pedicellaris 
 5 dokali          Brosimum   parinarioides
 6 satiné rubané   Brosimum   rubescens    
 7 dokali mapa     Brosimum   utile        
 8 bushi amanda    Buchenavia spp          
 9 carapa          Carapa     guiansensis  
10 carapa          Carapa     surinamensis 
# ℹ 85 more rows

select

We can also specify the columns we don’t want to select using select.

Let’s select all the columns except the commercial name, using - before the name of the column to exclude:

sp_com %>% 
  select(- CommercialName)

# A tibble: 95 × 7
   Genus      Species       CommercialLevel MinFD UpMinFD MaxFD Aggregative
   <chr>      <chr>                   <int> <int>   <int> <int> <lgl>      
 1 Andira     spp                         2    55      60   120 FALSE      
 2 Aniba      spp                         2    55      60   120 FALSE      
 3 Bagassa    guianensis                  2    55      60   120 FALSE      
 4 Balizia    pedicellaris                2    55      60   120 FALSE      
 5 Brosimum   parinarioides               2    55      60   120 FALSE      
 6 Brosimum   rubescens                   2    55      60   120 FALSE      
 7 Brosimum   utile                       2    55      60   120 FALSE      
 8 Buchenavia spp                         2    55      60   120 FALSE      
 9 Carapa     guiansensis                 2    55      60   120 FALSE      
10 Carapa     surinamensis                2    55      60   120 FALSE      
# ℹ 85 more rows

select

We can use functions to express a conditions on the column names: starts_with, ends_with, contains…

# columns starting with "com"
sp_com %>% 
  select(starts_with("Com")) 

# A tibble: 95 × 2
   CommercialName  CommercialLevel
   <chr>                     <int>
 1 st martin rouge               2
 2 bamba apici                   2
 3 bagasse                       2
 4 assao                         2
 5 dokali                        2
 6 satiné rubané                 2
 7 dokali mapa                   2
 8 bushi amanda                  2
 9 carapa                        2
10 carapa                        2
# ℹ 85 more rows

# columns containing "FD"
sp_com %>% 
  select(contains("FD")) 

# A tibble: 95 × 3
   MinFD UpMinFD MaxFD
   <int>   <int> <int>
 1    55      60   120
 2    55      60   120
 3    55      60   120
 4    55      60   120
 5    55      60   120
 6    55      60   120
 7    55      60   120
 8    55      60   120
 9    55      60   120
10    55      60   120
# ℹ 85 more rows
…
We see that the genus Couepia has two species, for instance.

Grouping according to several columns

The functions group_by and count can be used to group on several columns.

Let’s go back to the dataset on commercial species and count the number of Species per Genus and per commercial name:

sp_com %>% 
  count(Genus, CommercialName)

# A tibble: 66 × 3
   Genus      CommercialName      n
   <chr>      <chr>           <int>
 1 Andira     st martin rouge     1
 2 Aniba      bamba apici         1
 3 Bagassa    bagasse             1
 4 Balizia    assao               1
 5 Brosimum   dokali              1
 6 Brosimum   dokali mapa         1
 7 Brosimum   satiné rubané       1
 8 Buchenavia bushi amanda        1
 9 Carapa     carapa              2
10 Caryocar   chawari             2
# ℹ 56 more rows
…
useful for graphs to set the order of the levels

Function if_else

if_else from the package dplyr performs a test on a variable, and give a value if true and another if false:

dt4 %>% 
  mutate(age_cat = # add a new column
           if_else(dt4$age > 10, # test
                   "Older than 10yr", # value if test TRUE
                   "Younger than 10yr"), # value if test  FALSE
         age_cat = as.factor(age_cat)) # transform to factor

# A tibble: 27 × 3
   past_landuse   age age_cat          
   <fct>        <dbl> <fct>            
 1 Pasture          5 Younger than 10yr
 2 Pasture         10 Younger than 10yr
 3 Soybeans         8 Younger than 10yr
 4 Sugarcane       13 Older than 10yr  
 5 Sugarcane       15 Older than 10yr  
 6 Soybeans         5 Younger than 10yr
 7 Pasture          9 Younger than 10yr
 8 Soybeans         8 Younger than 10yr
 9 Pasture         12 Older than 10yr  
10 Pasture          5 Younger than 10yr
# ℹ 17 more rows
…
Function case_when

case_when from the package dplyr generalises if_else to allow several conditions:

dt4 %>% 
  mutate(category = 
           case_when(dt4$age < 8 ~ # test for the first case
               "Young", # value for the first case
             dt4$age > 10 ~ # test for the second case
               "Old", # value for the second case
             TRUE ~ "Medium")) %>% # all the other cases
  mutate(category = as.factor(category)) # transform to factor

# A tibble: 27 × 3
   past_landuse   age category
   <fct>        <dbl> <fct>   
 1 Pasture          5 Young   
 2 Pasture         10 Medium  
 3 Soybeans         8 Medium  
 4 Sugarcane       13 Old     
 5 Sugarcane       15 Old     
 6 Soybeans         5 Young   
 7 Pasture          9 Medium  
 8 Soybeans         8 Medium  
 9 Pasture         12 Old     
10 Pasture          5 Young   
# ℹ 17 more rows
…
Function case_when

The tests performed by case_when and if_else can be combinations of tests (using operators like &, |, and !):

dt4 %>% 
  mutate(category = 
           case_when(
             dt4$past_landuse != "Pasture" & dt4$age < 10 ~ # tests for the first case
               "Young after agriculture", # value for the first case
             dt4$past_landuse == "Pasture" & dt4$age < 10 ~ # tests for the second case
               "Young after pasture", # value for the second case
             TRUE ~ "Old")) %>% # all the other cases
  mutate(category = as.factor(category)) # transform to factor

# A tibble: 27 × 3
   past_landuse   age category               
   <fct>        <dbl> <fct>                  
 1 Pasture          5 Young after pasture    
 2 Pasture         10 Old                    
 3 Soybeans         8 Young after agriculture
 4 Sugarcane       13 Old                    
 5 Sugarcane       15 Old                    
 6 Soybeans         5 Young after agriculture
 7 Pasture          9 Young after pasture    
 8 Soybeans         8 Young after agriculture
 9 Pasture         12 Old                    
10 Pasture          5 Young after pasture    
# ℹ 17 more rows
…
We have 3 cases

and the test for each case has two conditions

we could use case_when with a test with just one condition

Function cut

cut from the package base divides a vector into classes:

dt4 %>% mutate(age_class =
                 cut(dt4$age, # vector to divide
                     breaks = 4)) # number of class

# A tibble: 27 × 3
   past_landuse   age age_class 
   <fct>        <dbl> <fct>     
 1 Pasture          5 (4.99,7.5]
 2 Pasture         10 (7.5,10]  
 3 Soybeans         8 (7.5,10]  
 4 Sugarcane       13 (12.5,15] 
 5 Sugarcane       15 (12.5,15] 
 6 Soybeans         5 (4.99,7.5]
 7 Pasture          9 (7.5,10]  
 8 Soybeans         8 (7.5,10]  
 9 Pasture         12 (10,12.5] 
10 Pasture          5 (4.99,7.5]
# ℹ 17 more rows
…
